Attributes Control Charts under Repetitive Sampling with two positive integers — npcrs2 • qccrs
…
, .k2r   = .95
   )
#> Warning: numerical expression has 910 elements: only the first used
#> Warning: numerical expression has 910 elements: only the first used
#> Warning: numerical expression has 910 elements: only the first used
#> Warning: numerical expression has 910 elements: only the first used
#> Warning: numerical expression has 910 elements: only the first used
#> Warning: numerical expression has 910 elements: only the first used
#> Warning: numerical expression has 910 elements: only the first used
#> Warning: numerical expression has 910 elements: only the first used
#> Warning: numerical expression has 910 elements: only the first used
#> Warning: numerical expression has 910 elements: only the first used
#> Warning: numerical expression has 910 elements: only the first used
#> Warning: numerical expression has 910 elements: only the first used
#> # A tibble: 910 x 5
#>      .k1   .k2    .f  ASN1  ARL1
#>    <dbl> <dbl> <dbl> <dbl> <dbl>
#>  1  3.08 0.906   0.1  70.5  57.8
#>  2  3.02 0.711   0.1  70.5  57.8
#>  3  3.15 0.769   0.1  70.5  57.8
#>  4  3.09 0.763   0.1  70.5  57.8
#>  5  3.06 0.797   0.1  70.5  57.8
#>  6  3.01 0.766   0.1  70.5  57.8
#>  7  3.01 0.672   0.1  70.5  57.8
#>  8  3.08 0.830   0.1  70.5  57.8
#>  9  3.11 0.693   0.1  70.5  57.8
#> 10  3.06 0.679   0.1  70.5  57.8
#> # … with 900 more rows
…
